%YAML 1.1
%TAG !u! tag:unity3d.com,2011:
--- !u!114 &11400000
MonoBehaviour:
  m_ObjectHideFlags: 0
  m_CorrespondingSourceObject: {fileID: 0}
  m_PrefabInstance: {fileID: 0}
  m_PrefabAsset: {fileID: 0}
  m_GameObject: {fileID: 0}
  m_Enabled: 1
  m_EditorHideFlags: 0
  m_Script: {fileID: 11500000, guid: ccce27a6c816545eeba860df20ad3518, type: 3}
  m_Name: ZombieStats
  m_EditorClassIdentifier: 
  maxHealth: 100
  damagePower: 20
  wanderRadius: 10
  minWanderTimer: 5
